****************************************************************************************************************************************************************************************************************************************************************************************************************************************************************************************************************************************************************************************************
Exercise 4: 2021-11-28 13:19:38.635205
****************************************************************************************************************************************************************************************************************************************************************************************************************************************************************************************************************************************************************************************************
Question 1: 22/25
 -Comment 1: All correct except for improper implementation of histogram (-3pts): 22/25
****************************************************************************************************************************************************************************************************************************************************************************************************************************************************************************************************************************************************************************************************
Question 2: 15/20
 -Comment 1: b) Proper bounds and N^2 iterations, but my code didnt use atomic, and has collapse(2), so race condition to update a given dphi. Fixable by only iterating over outser loop in my case: 5/5 for part b), but 0/?? for part d). c) explanations okay, found h: 5/5. e) plotted them, as well as gave an answer that matched the TAs (strong scaling matters more). I used the equations itself to justify my answer as oppose to the graph, but in hindsight, I could have used it. 5/5
****************************************************************************************************************************************************************************************************************************************************************************************************************************************************************************************************************************************************************************************************
Grade: 5.47